…
Next we use `tidytext` to parse the text of each post into individual terms or tokens.  


```r
tokens_df = unnest_tokens(dataf, token, raw_text)
tokens_df
```

```
## # A tibble: 57,530 x 3
##    path                                                  post_id token    
##    <chr>                                                   <int> <chr>    
##  1 ../_posts/2012-03-14-friedersdorf-the-sex-friendly-c…       1 layout   
##  2 ../_posts/2012-03-14-friedersdorf-the-sex-friendly-c…       1 post     
##  3 ../_posts/2012-03-14-friedersdorf-the-sex-friendly-c…       1 title    
##  4 ../_posts/2012-03-14-friedersdorf-the-sex-friendly-c…       1 frieders…
##  5 ../_posts/2012-03-14-friedersdorf-the-sex-friendly-c…       1 the      
##  6 ../_posts/2012-03-14-friedersdorf-the-sex-friendly-c…       1 sex      
##  7 ../_posts/2012-03-14-friedersdorf-the-sex-friendly-c…       1 friendly 
##  8 ../_posts/2012-03-14-friedersdorf-the-sex-friendly-c…       1 case     
##  9 ../_posts/2012-03-14-friedersdorf-the-sex-friendly-c…       1 against  
## 10 ../_posts/2012-03-14-friedersdorf-the-sex-friendly-c…       1 free     
## # ... with 57,520 more rows
```
…
```
## Joining, by = c("path", "post_id")
```

```
## Source: local data frame [40 x 8]
## Groups: <by row>
## 
## # A tibble: 40 x 8
##    path      post_id null  header    body      tags  tags_str   combined  
##  * <chr>       <int> <chr> <chr>     <chr>     <lis> <chr>      <chr>     
##  1 ../_post…       1 ""    "\nlayou… "\n\n\n[… <chr… tags: [bi… "---\nlay…
##  2 ../_post…       2 ""    "\nlayou… "\n\n\n[… <chr… tags: [bi… "---\nlay…
##  3 ../_post…       3 ""    "\nlayou… "\n\n\nT… <chr… tags: [an… "---\nlay…
##  4 ../_post…       5 ""    "\nlayou… "\n\n\nI… <chr… tags: [ma… "---\nlay…
##  5 ../_post…       6 ""    "\nlayou… "\n\n\nI… <chr… tags: [ci… "---\nlay…
##  6 ../_post…       7 ""    "\nlayou… "\n\n\nI… <chr… tags: [an… "---\nlay…
##  7 ../_post…       8 ""    "\nlayou… "\n\n\nI… <chr… tags: [an… "---\nlay…
##  8 ../_post…       9 ""    "\nlayou… "\n\n\nT… <chr… tags: [bi… "---\nlay…
##  9 ../_post…      10 ""    "\nlayou… "\n\n\n\… <chr… tags: [an… "---\nlay…
## 10 ../_post…      11 ""    "\nlayou… "\n\n\n(… <chr… tags: [de… "---\nlay…
## # ... with 30 more rows
```
…
